{
  "name": "user_accounts",
  "base": "User",
  "idInjection": true,
  "options": {
    "validateUpsert": true
  },
  "properties": {
    "username": {
      "type": "string"
    },
    "phonenumber": {
      "type": "string"
    },
    "full_name": {
      "type": "string"
    }
  },
  "validations": [],
  "relations": {
    "job_assigned": {
      "type": "hasOne",
      "model": "JobPosted",
      "foreignKey": "",
      "options": {
        "nestRemoting": true
      }
    },
    "userId": {
      "type": "hasOne",
      "model": "UserProfile",
      "foreignKey": "",
      "options": {
        "nestRemoting": true
      }
    }
  },
  "acls": [],
  "methods": {}
}
